---
http_interactions:
- request:
    method: get
    uri: https://www.flickr.com/services/rest/?api_key=<FLICKR_API_KEY>&content_type=1&format=json&lat=48.856614&lon=2.3522219&method=flickr.photos.search&nojsoncallback=1&per_page=15&safe_search=1&sort=interestingness-desc&tags=downtown,sky
    body:
      encoding: US-ASCII
      string: ''
    headers:
      User-Agent:
      - Faraday v0.17.0
      Accept-Encoding:
      - gzip;q=1.0,deflate;q=0.6,identity;q=0.3
      Accept:
      - "*/*"
  response:
    status:
      code: 200
      message: OK
    headers:
      Content-Type:
      - application/json
      Transfer-Encoding:
      - chunked
      Connection:
      - keep-alive
      Vary:
      - Accept-Encoding
      Date:
      - Wed, 20 Nov 2019 15:14:30 GMT
      Server:
      - Apache/2.4.41 (Ubuntu)
      X-Content-Type-Options:
      - nosniff
      X-Frame-Options:
      - SAMEORIGIN
      X-Cache:
      - Miss from cloudfront
      Via:
      - 1.1 a5b7c4fb9a353a27aa5810e812f99d70.cloudfront.net (CloudFront)
      X-Amz-Cf-Pop:
      - CDG3-C1
      X-Amz-Cf-Id:
      - lk8OYSP9MqwafkvLPoQA8qZ6BZbGOa7rm5RHuk-S_dB05KgPl3jvJQ==
    body:
      encoding: ASCII-8BIT
      string: '{"photos":{"page":1,"pages":1091,"perpage":15,"total":"16364","photo":[{"id":"45076145644","owner":"45328076@N06","secret":"c133a64a02","server":"4843","farm":5,"title":"Paris
        sera toujours Paris","ispublic":1,"isfriend":0,"isfamily":0},{"id":"28982790947","owner":"32411159@N05","secret":"b20ae9d8e6","server":"940","farm":1,"title":"Eiffel
        Tower lit up","ispublic":1,"isfriend":0,"isfamily":0},{"id":"29860146328","owner":"42819205@N05","secret":"915e98d420","server":"939","farm":1,"title":"We
        flew into the city of Love....","ispublic":1,"isfriend":0,"isfamily":0},{"id":"25711575437","owner":"7156765@N05","secret":"fdaae89694","server":"4788","farm":5,"title":"Paris  France
        -  Church of Saint-Roch -\u00c9glise Saint-Roch - Architecture -  Baroque","ispublic":1,"isfriend":0,"isfamily":0},{"id":"36248884851","owner":"7156765@N05","secret":"7ce0cf667c","server":"4358","farm":5,"title":"Paris
        France ~ Saint-S\u00e9verin ~ Historic Church Downtown","ispublic":1,"isfriend":0,"isfamily":0},{"id":"34210146070","owner":"91873384@N04","secret":"05504e921c","server":"4181","farm":5,"title":"Paris","ispublic":1,"isfriend":0,"isfamily":0},{"id":"33609406074","owner":"7156765@N05","secret":"74159a0423","server":"4177","farm":5,"title":"Paris  France  ~  Moulin
        Rouge  ~  Historic Building ~ Birth of Can - Can","ispublic":1,"isfriend":0,"isfamily":0},{"id":"33230902934","owner":"7156765@N05","secret":"b4ee2318fb","server":"2830","farm":3,"title":"Paris   France  ~  Notre-Dame
        Cathedral  ~ Cath\u00e9drale Notre-Dame de Paris ~ Pinacle - Spiral Spire","ispublic":1,"isfriend":0,"isfamily":0},{"id":"33650394930","owner":"7156765@N05","secret":"cf30b097a1","server":"2894","farm":3,"title":"Paris   France  ~  Notre-Dame
        Cathedral  ~ Cath\u00e9drale Notre-Dame de Paris","ispublic":1,"isfriend":0,"isfamily":0},{"id":"33090461994","owner":"7156765@N05","secret":"8e368c2b96","server":"3952","farm":4,"title":"Paris   France  ~  Notre-Dame
        Cathedral  ~ Cath\u00e9drale Notre-Dame de Paris","ispublic":1,"isfriend":0,"isfamily":0},{"id":"15731384489","owner":"24257706@N07","secret":"46f3f57e38","server":"8583","farm":9,"title":"Cirrocumulus
        et Tour Eiffel","ispublic":1,"isfriend":0,"isfamily":0},{"id":"15917390665","owner":"24257706@N07","secret":"7092939344","server":"7569","farm":8,"title":"Les
        dentelles de la Tour Eiffel sur fond de Cirrocumulus","ispublic":1,"isfriend":0,"isfamily":0},{"id":"9601128987","owner":"59984889@N00","secret":"28b1371fd5","server":"3834","farm":4,"title":"Paris
        Balconies","ispublic":1,"isfriend":0,"isfamily":0},{"id":"9563659609","owner":"59984889@N00","secret":"9f642cfa3c","server":"3826","farm":4,"title":"Paris
        Building","ispublic":1,"isfriend":0,"isfamily":0},{"id":"25816532828","owner":"74478411@N07","secret":"0456cfa6c5","server":"4631","farm":5,"title":"summer
        feelings","ispublic":1,"isfriend":0,"isfamily":0}]},"stat":"ok"}'
    http_version: 
  recorded_at: Wed, 20 Nov 2019 15:14:30 GMT
recorded_with: VCR 5.0.0
