{
  "photos": {
      "page": 1,
      "pages": 655,
      "perpage": 25,
      "total": "16357",
      "photo": [
          {
              "id": "45076145644",
              "owner": "45328076@N06",
              "secret": "c133a64a02",
              "server": "4843",
              "farm": 5,
              "title": "Paris sera toujours Paris",
              "ispublic": 1,
              "isfriend": 0,
              "isfamily": 0
          },
          {
              "id": "28982790947",
              "owner": "32411159@N05",
              "secret": "b20ae9d8e6",
              "server": "940",
              "farm": 1,
              "title": "Eiffel Tower lit up",
              "ispublic": 1,
              "isfriend": 0,
              "isfamily": 0
          },
          {
              "id": "29860146328",
              "owner": "42819205@N05",
              "secret": "915e98d420",
              "server": "939",
              "farm": 1,
              "title": "We flew into the city of Love....",
              "ispublic": 1,
              "isfriend": 0,
              "isfamily": 0
          },
          {
              "id": "25711575437",
              "owner": "7156765@N05",
              "secret": "fdaae89694",
              "server": "4788",
              "farm": 5,
              "title": "Paris  France -  Church of Saint-Roch -Église Saint-Roch - Architecture -  Baroque",
              "ispublic": 1,
              "isfriend": 0,
              "isfamily": 0
          },
          {
              "id": "25816532828",
              "owner": "74478411@N07",
              "secret": "0456cfa6c5",
              "server": "4631",
              "farm": 5,
              "title": "summer feelings",
              "ispublic": 1,
              "isfriend": 0,
              "isfamily": 0
          },
          {
              "id": "36248884851",
              "owner": "7156765@N05",
              "secret": "7ce0cf667c",
              "server": "4358",
              "farm": 5,
              "title": "Paris France ~ Saint-Séverin ~ Historic Church Downtown",
              "ispublic": 1,
              "isfriend": 0,
              "isfamily": 0
          },
          {
              "id": "33609406074",
              "owner": "7156765@N05",
              "secret": "74159a0423",
              "server": "4177",
              "farm": 5,
              "title": "Paris  France  ~  Moulin Rouge  ~  Historic Building ~ Birth of Can - Can",
              "ispublic": 1,
              "isfriend": 0,
              "isfamily": 0
          },
          {
              "id": "33230902934",
              "owner": "7156765@N05",
              "secret": "b4ee2318fb",
              "server": "2830",
              "farm": 3,
              "title": "Paris   France  ~  Notre-Dame Cathedral  ~ Cathédrale Notre-Dame de Paris ~ Pinacle - Spiral Spire",
              "ispublic": 1,
              "isfriend": 0,
              "isfamily": 0
          },
          {
              "id": "33650394930",
              "owner": "7156765@N05",
              "secret": "cf30b097a1",
              "server": "2894",
              "farm": 3,
              "title": "Paris   France  ~  Notre-Dame Cathedral  ~ Cathédrale Notre-Dame de Paris",
              "ispublic": 1,
              "isfriend": 0,
              "isfamily": 0
          },
          {
              "id": "33090461994",
              "owner": "7156765@N05",
              "secret": "8e368c2b96",
              "server": "3952",
              "farm": 4,
              "title": "Paris   France  ~  Notre-Dame Cathedral  ~ Cathédrale Notre-Dame de Paris",
              "ispublic": 1,
              "isfriend": 0,
              "isfamily": 0
          },
          {
              "id": "15917390665",
              "owner": "24257706@N07",
              "secret": "7092939344",
              "server": "7569",
              "farm": 8,
              "title": "Les dentelles de la Tour Eiffel sur fond de Cirrocumulus",
              "ispublic": 1,
              "isfriend": 0,
              "isfamily": 0
          },
          {
              "id": "9601128987",
              "owner": "59984889@N00",
              "secret": "28b1371fd5",
              "server": "3834",
              "farm": 4,
              "title": "Paris Balconies",
              "ispublic": 1,
              "isfriend": 0,
              "isfamily": 0
          },
          {
              "id": "9563659609",
              "owner": "59984889@N00",
              "secret": "9f642cfa3c",
              "server": "3826",
              "farm": 4,
              "title": "Paris Building",
              "ispublic": 1,
              "isfriend": 0,
              "isfamily": 0
          },
          {
              "id": "8697470744",
              "owner": "68580585@N06",
              "secret": "c921bcf0f8",
              "server": "8117",
              "farm": 9,
              "title": "Parisian Sunset",
              "ispublic": 1,
              "isfriend": 0,
              "isfamily": 0
          },
          {
              "id": "6010471624",
              "owner": "7989225@N08",
              "secret": "41121b3fc7",
              "server": "6005",
              "farm": 7,
              "title": "Le Trafic",
              "ispublic": 1,
              "isfriend": 0,
              "isfamily": 0
          },
          {
              "id": "4380146039",
              "owner": "9040545@N06",
              "secret": "d3e7659433",
              "server": "4060",
              "farm": 5,
              "title": "Sunset over Paris",
              "ispublic": 1,
              "isfriend": 0,
              "isfamily": 0
          },
          {
              "id": "34210146070",
              "owner": "91873384@N04",
              "secret": "05504e921c",
              "server": "4181",
              "farm": 5,
              "title": "Paris",
              "ispublic": 1,
              "isfriend": 0,
              "isfamily": 0
          },
          {
              "id": "15731384489",
              "owner": "24257706@N07",
              "secret": "46f3f57e38",
              "server": "8583",
              "farm": 9,
              "title": "Cirrocumulus et Tour Eiffel",
              "ispublic": 1,
              "isfriend": 0,
              "isfamily": 0
          },
          {
              "id": "3923080541",
              "owner": "98063020@N00",
              "secret": "a3e7dd2f5a",
              "server": "3418",
              "farm": 4,
              "title": "View from Montmartre",
              "ispublic": 1,
              "isfriend": 0,
              "isfamily": 0
          },
          {
              "id": "3923075939",
              "owner": "98063020@N00",
              "secret": "b527b98ffb",
              "server": "3488",
              "farm": 4,
              "title": "View from Montmartre",
              "ispublic": 1,
              "isfriend": 0,
              "isfamily": 0
          },
          {
              "id": "46899512644",
              "owner": "78415063@N00",
              "secret": "bfaf9782ae",
              "server": "65535",
              "farm": 66,
              "title": "Souvenir from Notre-Dame",
              "ispublic": 1,
              "isfriend": 0,
              "isfamily": 0
          },
          {
              "id": "26354571705",
              "owner": "95611172@N02",
              "secret": "f72516947c",
              "server": "1521",
              "farm": 2,
              "title": "Louvre Pyramid",
              "ispublic": 1,
              "isfriend": 0,
              "isfamily": 0
          },
          {
              "id": "26148072796",
              "owner": "137439059@N04",
              "secret": "bc9dbf311a",
              "server": "1639",
              "farm": 2,
              "title": "Cycling from the shadows",
              "ispublic": 1,
              "isfriend": 0,
              "isfamily": 0
          },
          {
              "id": "10564112694",
              "owner": "20940162@N07",
              "secret": "0978f907d1",
              "server": "5472",
              "farm": 6,
              "title": "Eiffel Tower and Balloon",
              "ispublic": 1,
              "isfriend": 0,
              "isfamily": 0
          },
          {
              "id": "7656439368",
              "owner": "75669736@N04",
              "secret": "4fb97fb334",
              "server": "7128",
              "farm": 8,
              "title": "Eiffel tower at night",
              "ispublic": 1,
              "isfriend": 0,
              "isfamily": 0
          }
      ]
  },
  "stat": "ok"
}